r-analytics.utf8
…
```
# A tibble: 891 x 3
  Sex    Survived Embarked   
  <fct>  <fct>    <fct>      
1 male   No       Southampton
2 female Yes      Cherbourg  
3 female Yes      Southampton
4 female Yes      Southampton
# … with 887 more rows
```
…
